Q1,Q1-Order,Q1-time,Q2,Q2-Order,Q2-time,Q3,Q3-Order,Q3-Type,Q4,Q4-Order,Q4-Time,Q5,Q5-Order,Q5-Time,Q6,Q6-Order,Q6-Time,Q7,Q7-Order,Q7-Time,start,end,user-agent
14,5,2018/6/18 20:23,15,2,2018/6/18 20:22,14,6,2018/6/18 20:23,31,1,2018/6/18 20:23,35,7,2018/6/18 20:22,6,3,2018/6/18 20:22,9,4,2018/6/18 20:23,2018/6/18 20:22,2018/6/18 20:23,"Mozilla/5.0 (Windows NT 10.0; Win64; x64) AppleWebKit/537.36 (KHTML, like Gecko) Chrome/67.0.3396.87 Safari/537.36"
10,7,2018/6/18 20:25,5,4,2018/6/18 20:25,10,3,2018/6/18 20:25,30,1,2018/6/18 20:25,5,2,2018/6/18 20:26,0,5,2018/6/18 20:26,0,6,2018/6/18 20:25,2018/6/18 20:24,2018/6/18 20:26,"Mozilla/5.0 (Windows NT 6.1; Win64; x64) AppleWebKit/537.36 (KHTML, like Gecko) Chrome/66.0.3359.139 Safari/537.36"
5,6,2018/6/18 20:23,10,7,2018/6/18 20:22,0,4,2018/6/18 20:22,70,2,2018/6/18 20:21,10,3,2018/6/18 20:23,0,5,2018/6/18 20:20,0,1,2018/6/18 20:20,2018/6/18 20:18,2018/6/18 20:23,"Mozilla/5.0 (Windows NT 10.0; Win64; x64) AppleWebKit/537.36 (KHTML, like Gecko) Chrome/67.0.3396.87 Safari/537.36"
10,3,2018/6/18 20:28,10,6,2018/6/18 20:27,10,2,2018/6/18 20:26,30,1,2018/6/18 20:28,10,7,2018/6/18 20:29,0,4,2018/6/18 20:27,0,5,2018/6/18 20:28,2018/6/18 20:26,2018/6/18 20:29,"Mozilla/5.0 (Windows NT 10.0; Win64; x64) AppleWebKit/537.36 (KHTML, like Gecko) Chrome/58.0.3029.110 Safari/537.36 Edge/16.16299"
1,6,2018/6/18 20:24,0,4,2018/6/18 20:23,0,5,2018/6/18 20:23,50,2,2018/6/18 20:21,20,3,2018/6/18 20:22,30,7,2018/6/18 20:21,0,1,2018/6/18 20:23,2018/6/18 20:19,2018/6/18 20:24,"Mozilla/5.0 (Windows NT 10.0; Win64; x64) AppleWebKit/537.36 (KHTML, like Gecko) Chrome/67.0.3396.87 Safari/537.36"
10,3,2018/6/18 20:30,0,6,2018/6/18 20:30,10,7,2018/6/18 20:29,70,1,2018/6/18 20:31,0,2,2018/6/18 20:31,0,5,2018/6/18 20:29,0,4,2018/6/18 20:30,2018/6/18 20:29,2018/6/18 20:31,"Mozilla/5.0 (Windows NT 10.0) AppleWebKit/537.36 (KHTML, like Gecko) Chrome/67.0.3396.87 Safari/537.36"
5,6,2018/6/18 20:32,5,7,2018/6/18 20:33,5,5,2018/6/18 20:32,15,1,2018/6/18 20:33,10,3,2018/6/18 20:32,0,2,2018/6/18 20:31,0,4,2018/6/18 20:32,2018/6/18 20:31,2018/6/18 20:33,"Mozilla/5.0 (Windows NT 10.0; Win64; x64) AppleWebKit/537.36 (KHTML, like Gecko) Chrome/67.0.3396.87 Safari/537.36"
24,1,2018/6/18 20:23,33,2,2018/6/18 20:24,6,3,2018/6/18 20:24,28,5,2018/6/18 20:25,20,4,2018/6/18 20:25,45,7,2018/6/18 20:26,3,6,2018/6/18 20:26,2018/6/18 20:22,2018/6/18 20:26,"Mozilla/5.0 (Windows NT 10.0; Win64; x64) AppleWebKit/537.36 (KHTML, like Gecko) Chrome/67.0.3396.87 Safari/537.36"
10,4,2018/6/18 20:25,45,7,2018/6/18 20:26,55,5,2018/6/18 20:25,60,6,2018/6/18 20:23,36,1,2018/6/18 20:24,0,3,2018/6/18 20:25,20,2,2018/6/18 20:24,2018/6/18 20:22,2018/6/18 20:26,"Mozilla/5.0 (Windows NT 6.1; Win64; x64) AppleWebKit/537.36 (KHTML, like Gecko) Chrome/67.0.3396.87 Safari/537.36"
10,5,2018/6/18 20:47,21,7,2018/6/18 20:46,10,2,2018/6/18 20:47,55,4,2018/6/18 20:47,10,1,2018/6/18 20:46,0,3,2018/6/18 20:48,0,6,2018/6/18 20:46,2018/6/18 20:45,2018/6/18 20:48,"Mozilla/5.0 (Windows NT 10.0; Win64; x64) AppleWebKit/537.36 (KHTML, like Gecko) Chrome/67.0.3396.87 Safari/537.36"
21,7,2018/6/18 22:17,28,4,2018/6/18 22:18,19,5,2018/6/18 22:18,91,1,2018/6/18 22:17,30,3,2018/6/18 22:17,0,6,2018/6/18 22:18,0,2,2018/6/18 22:17,2018/6/18 22:17,2018/6/18 22:18,"Mozilla/5.0 (Linux; Android 7.0; SO-01H Build/32.3.E.0.140) AppleWebKit/537.36 (KHTML, like Gecko) Chrome/66.0.3359.126 Mobile Safari/537.36"
30,2,2018/6/18 22:24,75,4,2018/6/18 22:19,45,3,2018/6/18 22:21,70,6,2018/6/18 22:20,20,7,2018/6/18 22:25,50,1,2018/6/18 22:22,30,5,2018/6/18 22:23,2018/6/18 22:18,2018/6/18 22:25,"Mozilla/5.0 (iPhone; CPU iPhone OS 11_1_2 like Mac OS X) AppleWebKit/604.3.5 (KHTML, like Gecko) Version/11.0 Mobile/15B202 Safari/604.1"
0,7,2018/6/18 22:02,0,1,2018/6/18 22:03,100,3,2018/6/18 22:03,100,2,2018/6/18 22:04,100,6,2018/6/18 22:04,0,5,2018/6/18 22:04,0,4,2018/6/18 22:01,2018/6/18 21:59,2018/6/18 22:04,"Mozilla/5.0 (iPhone; CPU iPhone OS 11_3 like Mac OS X) AppleWebKit/605.1.15 (KHTML, like Gecko) Version/11.0 Mobile/15E148 Safari/604.1"
10,5,2018/6/18 22:11,10,4,2018/6/18 22:10,70,6,2018/6/18 22:09,80,3,2018/6/18 22:07,51,7,2018/6/18 22:06,0,2,2018/6/18 22:08,20,1,2018/6/18 22:10,2018/6/18 22:05,2018/6/18 22:11,"Mozilla/5.0 (iPhone; CPU iPhone OS 11_4 like Mac OS X) AppleWebKit/605.1.15 (KHTML, like Gecko) Version/11.0 Mobile/15E148 Safari/604.1"
0,4,2018/6/18 22:09,0,5,2018/6/18 22:08,0,3,2018/6/18 22:08,30,7,2018/6/18 22:07,0,2,2018/6/18 22:07,0,6,2018/6/18 22:09,0,1,2018/6/18 22:08,2018/6/18 22:06,2018/6/18 22:09,"Mozilla/5.0 (Windows NT 10.0; Win64; x64) AppleWebKit/537.36 (KHTML, like Gecko) Chrome/67.0.3396.87 Safari/537.36"
45,5,2018/6/18 15:13,10,3,2018/6/18 15:14,60,4,2018/6/18 15:11,90,6,2018/6/18 15:11,45,7,2018/6/18 15:10,10,1,2018/6/18 15:12,98,2,2018/6/18 15:13,2018/6/18 15:08,2018/6/18 15:14,"Mozilla/5.0 (Windows NT 10.0; Win64; x64) AppleWebKit/537.36 (KHTML, like Gecko) Chrome/67.0.3396.87 Safari/537.36"
50,1,2018/6/18 22:13,50,7,2018/6/18 22:22,0,6,2018/6/18 22:24,30,5,2018/6/18 22:20,0,4,2018/6/18 22:18,70,2,2018/6/18 22:16,70,3,2018/6/18 22:15,2018/6/18 22:10,2018/6/18 22:24,"Mozilla/5.0 (Windows NT 10.0; Win64; x64) AppleWebKit/537.36 (KHTML, like Gecko) Chrome/67.0.3396.87 Safari/537.36"
8,2,2018/6/18 22:29,34,7,2018/6/18 22:28,9,4,2018/6/18 22:29,43,1,2018/6/18 22:28,19,3,2018/6/18 22:30,4,6,2018/6/18 22:30,12,5,2018/6/18 22:28,2018/6/18 22:27,2018/6/18 22:30,"Mozilla/5.0 (Windows NT 10.0; Win64; x64) AppleWebKit/537.36 (KHTML, like Gecko) Chrome/67.0.3396.87 Safari/537.36"
10,4,2018/6/18 22:16,50,3,2018/6/18 22:14,90,2,2018/6/18 22:13,20,7,2018/6/18 22:12,10,6,2018/6/18 22:16,0,5,2018/6/18 22:15,0,1,2018/6/18 22:15,2018/6/18 22:11,2018/6/18 22:16,"Mozilla/5.0 (Windows NT 10.0; Win64; x64) AppleWebKit/537.36 (KHTML, like Gecko) Chrome/67.0.3396.87 Safari/537.36"
2,3,2018/6/18 20:51,6,6,2018/6/18 20:51,20,1,2018/6/18 20:50,25,5,2018/6/18 20:52,5,2,2018/6/18 20:51,0,7,2018/6/18 20:51,5,4,2018/6/18 20:52,2018/6/18 20:50,2018/6/18 20:52,"Mozilla/5.0 (Windows NT 10.0; Win64; x64) AppleWebKit/537.36 (KHTML, like Gecko) Chrome/64.0.3282.140 Safari/537.36 Edge/17.17134"
5,7,2018/6/18 20:31,10,5,2018/6/18 20:32,10,4,2018/6/18 20:30,70,3,2018/6/18 20:30,0,6,2018/6/18 20:29,0,1,2018/6/18 20:31,30,2,2018/6/18 20:28,2018/6/18 20:25,2018/6/18 20:32,"Mozilla/5.0 (Windows NT 6.3; Win64; x64) AppleWebKit/537.36 (KHTML, like Gecko) Chrome/67.0.3396.87 Safari/537.36"
38,5,2018/6/18 20:43,50,1,2018/6/18 20:44,59,7,2018/6/18 20:44,31,6,2018/6/18 20:44,29,2,2018/6/18 20:42,19,3,2018/6/18 20:43,67,4,2018/6/18 20:43,2018/6/18 20:42,2018/6/18 20:44,"Mozilla/5.0 (iPhone; CPU iPhone OS 11_4 like Mac OS X) AppleWebKit/605.1.15 (KHTML, like Gecko) Version/11.0 Mobile/15E148 Safari/604.1"
10,2,2018/6/18 21:00,20,7,2018/6/18 20:58,28,3,2018/6/18 20:59,17,5,2018/6/18 20:59,23,4,2018/6/18 20:59,5,1,2018/6/18 21:00,8,6,2018/6/18 20:58,2018/6/18 20:58,2018/6/18 21:00,"Mozilla/5.0 (Linux; Android 4.1.2; MediaPad 7 Youth Build/HuaweiMediaPad) AppleWebKit/537.36 (KHTML, like Gecko) Chrome/66.0.3359.158 Safari/537.36"
10,5,2018/6/18 20:34,25,7,2018/6/18 20:35,0,4,2018/6/18 20:35,75,1,2018/6/18 20:34,25,3,2018/6/18 20:33,0,6,2018/6/18 20:35,0,2,2018/6/18 20:33,2018/6/18 20:32,2018/6/18 20:35,"Mozilla/5.0 (Windows NT 10.0; Win64; x64) AppleWebKit/537.36 (KHTML, like Gecko) Chrome/67.0.3396.79 Safari/537.36 Kinza/4.8.0"
0,2,2018/6/18 14:36,0,3,2018/6/18 14:34,0,5,2018/6/18 14:35,95,7,2018/6/18 14:36,0,1,2018/6/18 14:35,0,4,2018/6/18 14:37,0,6,2018/6/18 14:35,2018/6/18 14:33,2018/6/18 14:37,"Mozilla/5.0 (Windows NT 10.0; Win64; x64) AppleWebKit/537.36 (KHTML, like Gecko) Chrome/67.0.3396.87 Safari/537.36"
20,7,2018/6/18 20:37,0,6,2018/6/18 20:37,15,1,2018/6/18 20:38,25,2,2018/6/18 20:38,20,4,2018/6/18 20:39,10,3,2018/6/18 20:36,65,5,2018/6/18 20:34,2018/6/18 20:33,2018/6/18 20:39,"Mozilla/5.0 (Windows NT 6.1; Win64; x64) AppleWebKit/537.36 (KHTML, like Gecko) Chrome/67.0.3396.87 Safari/537.36"
10,4,2018/6/18 20:52,10,2,2018/6/18 20:49,5,6,2018/6/18 20:50,30,7,2018/6/18 20:49,5,3,2018/6/18 20:51,0,5,2018/6/18 20:50,5,1,2018/6/18 20:50,2018/6/18 20:48,2018/6/18 20:52,"Mozilla/5.0 (iPhone; CPU iPhone OS 11_4 like Mac OS X) AppleWebKit/605.1.15 (KHTML, like Gecko) Version/11.0 Mobile/15E148 Safari/604.1"
13,5,2018/6/18 20:40,14,2,2018/6/18 20:38,23,3,2018/6/18 20:39,83,6,2018/6/18 20:40,50,4,2018/6/18 20:38,0,1,2018/6/18 20:40,9,7,2018/6/18 20:41,2018/6/18 20:35,2018/6/18 20:41,"Mozilla/5.0 (Windows NT 10.0; Win64; x64) AppleWebKit/537.36 (KHTML, like Gecko) Chrome/64.0.3282.140 Safari/537.36 Edge/17.17134"
8,3,2018/6/18 20:40,11,2,2018/6/18 20:38,30,4,2018/6/18 20:37,55,6,2018/6/18 20:39,6,1,2018/6/18 20:42,8,7,2018/6/18 20:40,2,5,2018/6/18 20:41,2018/6/18 20:36,2018/6/18 20:42,"Mozilla/5.0 (iPhone; CPU iPhone OS 11_3 like Mac OS X) AppleWebKit/605.1.15 (KHTML, like Gecko) Version/11.0 Mobile/15E148 Safari/604.1"
12,4,2018/6/18 20:48,10,2,2018/6/18 20:46,11,5,2018/6/18 20:48,50,7,2018/6/18 20:45,9,3,2018/6/18 20:47,0,1,2018/6/18 20:49,0,6,2018/6/18 20:47,2018/6/18 20:44,2018/6/18 20:49,"Mozilla/5.0 (iPhone; CPU iPhone OS 11_4 like Mac OS X) AppleWebKit/604.1.34 (KHTML, like Gecko) CriOS/67.0.3396.87 Mobile/15F79 Safari/604.1"
30,5,2018/6/18 20:54,10,2,2018/6/18 20:54,10,1,2018/6/18 20:56,30,4,2018/6/18 20:55,10,7,2018/6/18 20:54,0,6,2018/6/18 20:55,0,3,2018/6/18 20:55,2018/6/18 20:53,2018/6/18 20:56,"Mozilla/5.0 (Windows NT 6.3; Win64; x64) AppleWebKit/537.36 (KHTML, like Gecko) Chrome/67.0.3396.87 Safari/537.36"
10,5,2018/6/18 20:43,20,1,2018/6/18 20:45,15,4,2018/6/18 20:46,30,6,2018/6/18 20:44,20,2,2018/6/18 20:42,0,7,2018/6/18 20:44,10,3,2018/6/18 20:45,2018/6/18 20:41,2018/6/18 20:46,"Mozilla/5.0 (Windows NT 10.0; Win64; x64) AppleWebKit/537.36 (KHTML, like Gecko) Chrome/67.0.3396.87 Safari/537.36"
10,7,2018/6/18 20:47,10,6,2018/6/18 20:46,11,5,2018/6/18 20:48,30,2,2018/6/18 20:47,10,4,2018/6/18 20:46,70,1,2018/6/18 20:45,30,3,2018/6/18 20:44,2018/6/18 20:43,2018/6/18 20:48,"Mozilla/5.0 (iPhone; CPU iPhone OS 10_3_3 like Mac OS X) AppleWebKit/603.3.8 (KHTML, like Gecko) Mobile/14G60 YJApp-IOS jp.co.yahoo.ipn.appli/4.10.4"
20,5,2018/6/18 20:47,40,3,2018/6/18 20:46,40,2,2018/6/18 20:46,30,1,2018/6/18 20:48,40,6,2018/6/18 20:45,10,4,2018/6/18 20:48,10,7,2018/6/18 20:49,2018/6/18 20:43,2018/6/18 20:49,"Mozilla/5.0 (Linux; Android 4.2.2; KYY21 Build/211.0.1910) AppleWebKit/537.36 (KHTML, like Gecko) Chrome/67.0.3396.87 Mobile Safari/537.36"
10,6,2018/6/18 20:56,10,4,2018/6/18 20:57,30,7,2018/6/18 20:53,70,3,2018/6/18 20:50,30,5,2018/6/18 20:55,30,1,2018/6/18 20:50,20,2,2018/6/18 20:51,2018/6/18 20:44,2018/6/18 20:57,"Mozilla/5.0 (Windows NT 10.0; Win64; x64) AppleWebKit/537.36 (KHTML, like Gecko) Chrome/67.0.3396.87 Safari/537.36"
95,5,2018/6/18 20:48,0,4,2018/6/18 20:48,50,1,2018/6/18 20:48,90,3,2018/6/18 20:47,25,2,2018/6/18 20:47,50,7,2018/6/18 20:49,50,6,2018/6/18 20:49,2018/6/18 20:45,2018/6/18 20:49,"Mozilla/5.0 (iPhone; CPU iPhone OS 11_4 like Mac OS X) AppleWebKit/605.1.15 (KHTML, like Gecko) Version/11.0 Mobile/15E148 Safari/604.1"
10,2,2018/6/18 21:08,20,4,2018/6/18 21:04,40,3,2018/6/18 21:07,80,6,2018/6/18 21:04,10,1,2018/6/18 21:09,0,7,2018/6/18 21:07,0,5,2018/6/18 21:08,2018/6/18 20:57,2018/6/18 21:09,"Mozilla/5.0 (Windows NT 10.0; Win64; x64) AppleWebKit/537.36 (KHTML, like Gecko) Chrome/67.0.3396.87 Safari/537.36"
7,6,2018/6/18 21:12,43,3,2018/6/18 21:09,90,2,2018/6/18 21:08,21,7,2018/6/18 21:11,25,4,2018/6/18 21:11,10,5,2018/6/18 21:06,4,1,2018/6/18 21:10,2018/6/18 21:02,2018/6/18 21:12,"Mozilla/5.0 (Windows NT 10.0; Win64; x64) AppleWebKit/537.36 (KHTML, like Gecko) Chrome/67.0.3396.87 Safari/537.36"
20,4,2018/6/18 20:59,10,3,2018/6/18 20:59,20,7,2018/6/18 20:56,75,5,2018/6/18 20:55,10,6,2018/6/18 20:58,0,1,2018/6/18 20:58,10,2,2018/6/18 20:57,2018/6/18 20:53,2018/6/18 20:59,"Mozilla/5.0 (Windows NT 6.3; Win64; x64) AppleWebKit/537.36 (KHTML, like Gecko) Chrome/67.0.3396.87 Safari/537.36"
15,5,2018/6/18 20:59,10,7,2018/6/18 21:00,42,1,2018/6/18 20:59,51,3,2018/6/18 21:00,70,4,2018/6/18 20:58,0,2,2018/6/18 21:00,33,6,2018/6/18 20:59,2018/6/18 20:57,2018/6/18 21:00,"Mozilla/5.0 (iPhone; CPU iPhone OS 11_4 like Mac OS X) AppleWebKit/605.1.15 (KHTML, like Gecko) Version/11.0 Mobile/15E148 Safari/604.1"
0,1,2018/6/18 21:09,40,2,2018/6/18 21:10,70,5,2018/6/18 21:11,40,7,2018/6/18 21:12,30,3,2018/6/18 21:11,0,6,2018/6/18 21:11,70,4,2018/6/18 21:11,2018/6/18 21:08,2018/6/18 21:12,"Mozilla/5.0 (Windows NT 6.1; Win64; x64) AppleWebKit/537.36 (KHTML, like Gecko) Chrome/67.0.3396.87 Safari/537.36"
10,6,2018/6/18 21:10,5,4,2018/6/18 21:10,5,5,2018/6/18 21:09,90,3,2018/6/18 21:08,10,1,2018/6/18 21:08,0,2,2018/6/18 21:07,0,7,2018/6/18 21:10,2018/6/18 21:05,2018/6/18 21:10,"Mozilla/5.0 (iPad; CPU OS 11_3 like Mac OS X) AppleWebKit/605.1.15 (KHTML, like Gecko) Version/11.0 Mobile/15E148 Safari/604.1"
10,7,2018/6/18 21:13,10,3,2018/6/18 21:14,13,6,2018/6/18 21:11,50,5,2018/6/18 21:14,10,1,2018/6/18 21:12,0,4,2018/6/18 21:12,5,2,2018/6/18 21:10,2018/6/18 21:09,2018/6/18 21:14,"Mozilla/5.0 (Windows NT 6.1) AppleWebKit/537.36 (KHTML, like Gecko) Chrome/67.0.3396.87 Safari/537.36"
5,2,2018/6/18 21:17,20,6,2018/6/18 21:16,8,7,2018/6/18 21:17,15,5,2018/6/18 21:17,10,1,2018/6/18 21:17,0,3,2018/6/18 21:16,0,4,2018/6/18 21:16,2018/6/18 21:16,2018/6/18 21:17,"Mozilla/5.0 (Windows NT 10.0; Win64; x64) AppleWebKit/537.36 (KHTML, like Gecko) Chrome/67.0.3396.87 Safari/537.36"
15,4,2018/6/18 21:13,42,1,2018/6/18 21:15,34,5,2018/6/18 21:14,24,7,2018/6/18 21:13,16,3,2018/6/18 21:14,13,2,2018/6/18 21:15,36,6,2018/6/18 21:14,2018/6/18 21:11,2018/6/18 21:15,"Mozilla/5.0 (Linux; Android 7.1.1; 602SO Build/41.2.D.0.249; wv) AppleWebKit/537.36 (KHTML, like Gecko) Version/4.0 Chrome/67.0.3396.87 Mobile Safari/537.36 YJApp-ANDROID jp.co.yahoo.android.yjtop/3.22.4"
10,7,2018/6/18 21:25,20,5,2018/6/18 21:25,49,3,2018/6/18 21:25,49,2,2018/6/18 21:26,29,1,2018/6/18 21:25,1,4,2018/6/18 21:26,71,6,2018/6/18 21:24,2018/6/18 21:24,2018/6/18 21:26,"Mozilla/5.0 (Windows NT 10.0; Win64; x64) AppleWebKit/537.36 (KHTML, like Gecko) Chrome/64.0.3282.140 Safari/537.36 Edge/17.17134"
0,3,2018/6/18 21:27,20,2,2018/6/18 21:23,50,5,2018/6/18 21:23,25,4,2018/6/18 21:26,5,6,2018/6/18 21:26,0,1,2018/6/18 21:26,0,7,2018/6/18 21:29,2018/6/18 21:22,2018/6/18 21:29,"Mozilla/5.0 (iPhone; CPU iPhone OS 11_4 like Mac OS X) AppleWebKit/605.1.15 (KHTML, like Gecko) Version/11.0 Mobile/15E148 Safari/604.1"
20,5,2018/6/18 21:24,10,6,2018/6/18 21:22,10,7,2018/6/18 21:26,70,2,2018/6/18 21:25,50,1,2018/6/18 21:17,10,4,2018/6/18 21:18,20,3,2018/6/18 21:21,2018/6/18 21:13,2018/6/18 21:26,"Mozilla/5.0 (Windows NT 6.1; Win64; x64) AppleWebKit/537.36 (KHTML, like Gecko) Chrome/67.0.3396.87 Safari/537.36"
31,3,2018/6/18 21:24,23,4,2018/6/18 21:25,83,7,2018/6/18 21:23,68,1,2018/6/18 21:23,32,6,2018/6/18 21:24,43,5,2018/6/18 21:24,36,2,2018/6/18 21:24,2018/6/18 21:23,2018/6/18 21:25,"Mozilla/5.0 (Linux; Android 7.0; SC-04J Build/NRD90M) AppleWebKit/537.36 (KHTML, like Gecko) SamsungBrowser/7.2 Chrome/59.0.3071.125 Mobile Safari/537.36"
10,5,2018/6/18 21:16,0,1,2018/6/18 21:18,0,6,2018/6/18 21:17,50,3,2018/6/18 21:18,60,2,2018/6/18 21:15,0,4,2018/6/18 21:17,0,7,2018/6/18 21:18,2018/6/18 21:13,2018/6/18 21:18,"Mozilla/5.0 (Windows NT 6.1; Win64; x64) AppleWebKit/537.36 (KHTML, like Gecko) Chrome/67.0.3396.87 Safari/537.36"
20,1,2018/6/18 21:19,10,7,2018/6/18 21:20,5,5,2018/6/18 21:20,30,4,2018/6/18 21:20,25,6,2018/6/18 21:19,0,3,2018/6/18 21:20,10,2,2018/6/18 21:19,2018/6/18 21:18,2018/6/18 21:20,"Mozilla/5.0 (Linux; Android 8.0.0; SO-01K Build/47.1.F.1.20) AppleWebKit/537.36 (KHTML, like Gecko) Chrome/66.0.3359.126 Mobile Safari/537.36"
10,3,2018/6/18 21:26,50,4,2018/6/18 21:27,30,1,2018/6/18 21:25,60,6,2018/6/18 21:26,20,2,2018/6/18 21:28,0,5,2018/6/18 21:27,50,7,2018/6/18 21:28,2018/6/18 21:24,2018/6/18 21:28,"Mozilla/5.0 (Windows NT 10.0; Win64; x64) AppleWebKit/537.36 (KHTML, like Gecko) Chrome/67.0.3396.87 Safari/537.36"
11,3,2018/6/18 21:32,5,5,2018/6/18 21:33,10,4,2018/6/18 21:31,30,6,2018/6/18 21:32,10,7,2018/6/18 21:31,0,1,2018/6/18 21:32,0,2,2018/6/18 21:32,2018/6/18 21:30,2018/6/18 21:33,"Mozilla/5.0 (Linux; Android 7.1.1; KYV42_u Build/1.040AN.11.a; wv) AppleWebKit/537.36 (KHTML, like Gecko) Version/4.0 Chrome/67.0.3396.87 Mobile Safari/537.36 YJApp-ANDROID jp.co.yahoo.android.yjtop/3.22.4"
5,4,2018/6/18 21:29,5,3,2018/6/18 21:29,18,5,2018/6/18 21:28,43,7,2018/6/18 21:28,5,6,2018/6/18 21:28,3,2,2018/6/18 21:29,0,1,2018/6/18 21:29,2018/6/18 21:28,2018/6/18 21:29,"Mozilla/5.0 (Windows NT 6.1; Win64; x64) AppleWebKit/537.36 (KHTML, like Gecko) Chrome/67.0.3396.87 Safari/537.36"
5,7,2018/6/18 21:16,0,1,2018/6/18 21:16,5,2,2018/6/18 21:17,30,3,2018/6/18 21:18,6,5,2018/6/18 21:17,0,4,2018/6/18 21:18,15,6,2018/6/18 21:15,2018/6/18 21:14,2018/6/18 21:18,Mozilla/5.0 (Windows NT 10.0; Win64; x64; rv:60.0) Gecko/20100101 Firefox/60.0
6,6,2018/6/18 21:17,8,4,2018/6/18 21:17,29,7,2018/6/18 21:17,87,5,2018/6/18 21:16,10,1,2018/6/18 21:16,62,3,2018/6/18 21:16,4,2,2018/6/18 21:16,2018/6/18 21:15,2018/6/18 21:17,"Mozilla/5.0 (Windows NT 6.1; Win64; x64) AppleWebKit/537.36 (KHTML, like Gecko) Chrome/67.0.3396.87 Safari/537.36"
15,1,2018/6/18 21:18,0,2,2018/6/18 21:19,40,7,2018/6/18 21:22,40,5,2018/6/18 21:21,0,4,2018/6/18 21:20,0,6,2018/6/18 21:21,0,3,2018/6/18 21:19,2018/6/18 21:14,2018/6/18 21:22,"Mozilla/5.0 (iPhone; CPU iPhone OS 11_2_5 like Mac OS X) AppleWebKit/604.5.6 (KHTML, like Gecko) Version/11.0 Mobile/15D60 Safari/604.1"
4,2,2018/6/18 21:23,12,5,2018/6/18 21:22,7,4,2018/6/18 21:23,57,3,2018/6/18 21:23,4,1,2018/6/18 21:22,0,7,2018/6/18 21:24,0,6,2018/6/18 21:23,2018/6/18 21:22,2018/6/18 21:24,"Mozilla/5.0 (Windows NT 10.0; Win64; x64) AppleWebKit/537.36 (KHTML, like Gecko) Chrome/67.0.3396.87 Safari/537.36"
10,6,2018/6/18 21:18,3,1,2018/6/18 21:20,3,4,2018/6/18 21:21,18,5,2018/6/18 21:18,4,7,2018/6/18 21:19,2,2,2018/6/18 21:17,0,3,2018/6/18 21:20,2018/6/18 21:16,2018/6/18 21:21,"Mozilla/5.0 (Windows NT 10.0; Win64; x64) AppleWebKit/537.36 (KHTML, like Gecko) Chrome/65.0.3400.0 Iron Safari/537.36"
70,5,2018/6/18 21:27,66,6,2018/6/18 21:27,64,3,2018/6/18 21:26,62,4,2018/6/18 21:26,61,1,2018/6/18 21:26,62,7,2018/6/18 21:26,68,2,2018/6/18 21:27,2018/6/18 21:26,2018/6/18 21:27,"Mozilla/5.0 (Linux; Android 8.0.0; SO-01K Build/47.1.F.1.20) AppleWebKit/537.36 (KHTML, like Gecko) Chrome/67.0.3396.87 Mobile Safari/537.36"
2,5,2018/6/18 21:23,2,2,2018/6/18 21:22,2,4,2018/6/18 21:23,24,6,2018/6/18 21:22,3,7,2018/6/18 21:21,0,3,2018/6/18 21:22,0,1,2018/6/18 21:23,2018/6/18 21:19,2018/6/18 21:23,"Mozilla/5.0 (Windows NT 10.0; Win64; x64) AppleWebKit/537.36 (KHTML, like Gecko) Chrome/64.0.3282.140 Safari/537.36 Edge/17.17134"
6,6,2018/6/18 21:30,17,2,2018/6/18 21:28,10,5,2018/6/18 21:29,40,4,2018/6/18 21:29,10,3,2018/6/18 21:28,67,7,2018/6/18 21:27,0,1,2018/6/18 21:29,2018/6/18 21:26,2018/6/18 21:30,"Mozilla/5.0 (Windows NT 10.0; Win64; x64) AppleWebKit/537.36 (KHTML, like Gecko) Chrome/67.0.3396.87 Safari/537.36"
30,5,2018/6/18 21:21,20,7,2018/6/18 21:21,78,6,2018/6/18 21:21,58,1,2018/6/18 21:21,64,4,2018/6/18 21:20,77,3,2018/6/18 21:21,38,2,2018/6/18 21:20,2018/6/18 21:20,2018/6/18 21:21,"Mozilla/5.0 (Windows NT 10.0; Win64; x64) AppleWebKit/537.36 (KHTML, like Gecko) Chrome/67.0.3396.87 Safari/537.36"
81,3,2018/6/18 21:24,30,1,2018/6/18 21:25,100,4,2018/6/18 21:24,50,7,2018/6/18 21:24,60,5,2018/6/18 21:25,80,6,2018/6/18 21:25,30,2,2018/6/18 21:24,2018/6/18 21:24,2018/6/18 21:25,"Mozilla/5.0 (Windows NT 10.0; Win64; x64) AppleWebKit/537.36 (KHTML, like Gecko) Chrome/67.0.3396.87 Safari/537.36"
32,1,2018/6/18 21:30,42,7,2018/6/18 21:31,41,2,2018/6/18 21:32,80,6,2018/6/18 21:33,61,3,2018/6/18 21:33,30,4,2018/6/18 21:32,32,5,2018/6/18 21:31,2018/6/18 21:30,2018/6/18 21:33,"Mozilla/5.0 (Linux; Android 5.1; FTJ152B Build/LMY47D; wv) AppleWebKit/537.36 (KHTML, like Gecko) Version/4.0 Chrome/67.0.3396.87 Mobile Safari/537.36 YJApp-ANDROID jp.co.yahoo.android.ybrowser/2.5.73"
10,1,2018/6/18 21:20,12,6,2018/6/18 21:21,10,7,2018/6/18 21:22,21,2,2018/6/18 21:23,5,5,2018/6/18 21:22,24,3,2018/6/18 21:20,3,4,2018/6/18 21:21,2018/6/18 21:19,2018/6/18 21:23,"Mozilla/5.0 (Windows NT 6.1; Win64; x64) AppleWebKit/537.36 (KHTML, like Gecko) Chrome/67.0.3396.87 Safari/537.36"
0,7,2018/6/18 21:26,0,3,2018/6/18 21:28,10,4,2018/6/18 21:24,15,5,2018/6/18 21:25,15,1,2018/6/18 21:25,0,6,2018/6/18 21:27,10,2,2018/6/18 21:22,2018/6/18 21:19,2018/6/18 21:28,"Mozilla/5.0 (Linux; Android 6.0.1; F-01H Build/V18R050D) AppleWebKit/537.36 (KHTML, like Gecko) Chrome/67.0.3396.87 Mobile Safari/537.36"
,,,,,,,,,,,,,,,,,,,,,,,
40,4,2018/6/18 21:23,41,7,2018/6/18 21:24,41,6,2018/6/18 21:24,66,5,2018/6/18 21:21,60,1,2018/6/18 21:23,30,2,2018/6/18 21:22,32,3,2018/6/18 21:22,2018/6/18 21:19,2018/6/18 21:24,"Mozilla/5.0 (Linux; Android 5.1; FTJ152B Build/LMY47D) AppleWebKit/537.36 (KHTML, like Gecko) Chrome/67.0.3396.87 Mobile Safari/537.36"
100,7,2018/6/18 21:20,50,1,2018/6/18 21:22,40,3,2018/6/18 21:21,100,5,2018/6/18 21:22,100,2,2018/6/18 21:21,80,4,2018/6/18 21:23,0,6,2018/6/18 21:20,2018/6/18 21:19,2018/6/18 21:23,"Mozilla/5.0 (Windows NT 10.0; Win64; x64) AppleWebKit/537.36 (KHTML, like Gecko) Chrome/67.0.3396.87 Safari/537.36"
10,6,2018/6/18 21:42,20,3,2018/6/18 21:43,10,1,2018/6/18 21:41,90,4,2018/6/18 21:43,10,2,2018/6/18 21:45,0,7,2018/6/18 21:40,0,5,2018/6/18 21:44,2018/6/18 21:38,2018/6/18 21:45,"Mozilla/5.0 (iPhone; CPU iPhone OS 11_3 like Mac OS X) AppleWebKit/605.1.15 (KHTML, like Gecko) Version/11.0 Mobile/15E148 Safari/604.1"
0,7,2018/6/18 21:53,0,2,2018/6/18 21:52,1,6,2018/6/18 21:53,2,4,2018/6/18 21:52,2,5,2018/6/18 21:53,0,1,2018/6/18 21:52,0,3,2018/6/18 21:51,2018/6/18 21:51,2018/6/18 21:53,"Mozilla/5.0 (Windows NT 10.0; Win64; x64) AppleWebKit/537.36 (KHTML, like Gecko) Chrome/67.0.3396.87 Safari/537.36"
10,4,2018/6/18 21:45,10,5,2018/6/18 21:46,10,1,2018/6/18 21:46,30,2,2018/6/18 21:45,30,6,2018/6/18 21:45,0,3,2018/6/18 21:46,0,7,2018/6/18 21:46,2018/6/18 21:44,2018/6/18 21:46,"Mozilla/5.0 (iPhone; CPU iPhone OS 11_4 like Mac OS X) AppleWebKit/605.1.15 (KHTML, like Gecko) Version/11.0 Mobile/15E148 Safari/604.1"
19,5,2018/6/18 21:50,8,1,2018/6/18 21:51,14,7,2018/6/18 21:52,61,6,2018/6/18 21:52,54,2,2018/6/18 21:49,0,3,2018/6/18 21:51,59,4,2018/6/18 21:51,2018/6/18 21:48,2018/6/18 21:52,"Mozilla/5.0 (Linux; Android 8.0.0; SC-02J Build/R16NW) AppleWebKit/537.36 (KHTML, like Gecko) SamsungBrowser/7.0 Chrome/59.0.3071.125 Mobile Safari/537.36"
21,2,2018/6/18 21:55,58,7,2018/6/18 21:52,46,4,2018/6/18 21:54,67,3,2018/6/18 21:54,44,5,2018/6/18 21:54,7,1,2018/6/18 21:55,76,6,2018/6/18 21:53,2018/6/18 21:51,2018/6/18 21:55,"Mozilla/5.0 (Linux; Android 8.0.0; SO-03J Build/41.3.B.1.41) AppleWebKit/537.36 (KHTML, like Gecko) Chrome/67.0.3396.87 Mobile Safari/537.36"
15,7,2018/6/18 22:21,50,2,2018/6/18 22:19,30,4,2018/6/18 22:20,80,3,2018/6/18 22:19,60,5,2018/6/18 22:20,0,6,2018/6/18 22:21,5,1,2018/6/18 22:18,2018/6/18 22:16,2018/6/18 22:21,"Mozilla/5.0 (Windows NT 6.3; WOW64) AppleWebKit/537.36 (KHTML, like Gecko) Chrome/66.0.3359.170 Safari/537.36 OPR/53.0.2907.99"
50,1,2018/6/18 22:38,60,7,2018/6/18 22:42,20,3,2018/6/18 22:40,80,5,2018/6/18 22:41,50,4,2018/6/18 22:40,15,2,2018/6/18 22:43,0,6,2018/6/18 22:39,2018/6/18 22:36,2018/6/18 22:43,"Mozilla/5.0 (iPhone; CPU iPhone OS 11_2_6 like Mac OS X) AppleWebKit/604.5.6 (KHTML, like Gecko) Version/11.0 Mobile/15D100 Safari/604.1"
20,4,2018/6/18 22:30,10,3,2018/6/18 22:29,30,2,2018/6/18 22:29,80,7,2018/6/18 22:29,11,6,2018/6/18 22:30,0,1,2018/6/18 22:30,0,5,2018/6/18 22:29,2018/6/18 22:28,2018/6/18 22:30,"Mozilla/5.0 (Linux; Android 7.0; SH-L02 Build/S4045) AppleWebKit/537.36 (KHTML, like Gecko) Chrome/67.0.3396.87 Mobile Safari/537.36"
15,3,2018/6/18 22:38,17,6,2018/6/18 22:37,30,2,2018/6/18 22:36,38,1,2018/6/18 22:38,7,4,2018/6/18 22:39,94,7,2018/6/18 22:36,3,5,2018/6/18 22:39,2018/6/18 22:35,2018/6/18 22:39,"Mozilla/5.0 (Windows NT 10.0; Win64; x64) AppleWebKit/537.36 (KHTML, like Gecko) Chrome/67.0.3396.87 Safari/537.36"
40,7,2018/6/18 22:31,50,1,2018/6/18 22:34,40,6,2018/6/18 22:34,70,5,2018/6/18 22:35,40,2,2018/6/18 22:33,0,3,2018/6/18 22:32,60,4,2018/6/18 22:30,2018/6/18 22:29,2018/6/18 22:35,"Mozilla/5.0 (iPhone; CPU iPhone OS 11_2_6 like Mac OS X) AppleWebKit/604.5.6 (KHTML, like Gecko) Version/11.0 Mobile/15D100 Safari/604.1"
6,2,2018/6/18 22:18,10,6,2018/6/18 22:15,6,5,2018/6/18 22:18,11,4,2018/6/18 22:17,3,7,2018/6/18 22:16,1,1,2018/6/18 22:16,2,3,2018/6/18 22:17,2018/6/18 22:15,2018/6/18 22:18,"Mozilla/5.0 (Windows NT 10.0; Win64; x64) AppleWebKit/537.36 (KHTML, like Gecko) Chrome/64.0.3282.140 Safari/537.36 Edge/17.17134"
26,6,2018/6/18 22:21,13,5,2018/6/18 22:21,28,4,2018/6/18 22:22,85,1,2018/6/18 22:20,51,2,2018/6/18 22:20,31,3,2018/6/18 22:19,0,7,2018/6/18 22:22,2018/6/18 22:18,2018/6/18 22:22,"Mozilla/5.0 (Windows NT 6.1) AppleWebKit/537.36 (KHTML, like Gecko) Chrome/66.0.3359.170 Safari/537.36 OPR/53.0.2907.99"
50,1,2018/6/18 22:21,20,5,2018/6/18 22:27,30,4,2018/6/18 22:24,90,3,2018/6/18 22:23,20,6,2018/6/18 22:23,0,7,2018/6/18 22:25,0,2,2018/6/18 22:26,2018/6/18 22:19,2018/6/18 22:27,"Mozilla/5.0 (Windows NT 10.0; Win64; x64) AppleWebKit/537.36 (KHTML, like Gecko) Chrome/67.0.3396.87 Safari/537.36"
10,3,2018/6/18 22:27,30,4,2018/6/18 22:26,40,2,2018/6/18 22:24,50,6,2018/6/18 22:25,10,7,2018/6/18 22:27,0,1,2018/6/18 22:26,0,5,2018/6/18 22:27,2018/6/18 22:23,2018/6/18 22:27,"Mozilla/5.0 (Windows NT 10.0; Win64; x64) AppleWebKit/537.36 (KHTML, like Gecko) Chrome/67.0.3396.87 Safari/537.36"
2,6,2018/6/18 22:30,12,3,2018/6/18 22:30,11,7,2018/6/18 22:29,53,5,2018/6/18 22:31,25,2,2018/6/18 22:30,10,1,2018/6/18 22:29,12,4,2018/6/18 22:29,2018/6/18 22:28,2018/6/18 22:31,"Mozilla/5.0 (Linux; Android 5.1; KYV34 Build/102.0.2800) AppleWebKit/537.36 (KHTML, like Gecko) Chrome/63.0.3239.111 Mobile Safari/537.36"
3,7,2018/6/18 22:29,0,4,2018/6/18 22:30,7,5,2018/6/18 22:29,55,3,2018/6/18 22:28,8,1,2018/6/18 22:28,0,2,2018/6/18 22:30,13,6,2018/6/18 22:27,2018/6/18 22:25,2018/6/18 22:30,"Mozilla/5.0 (iPhone; CPU iPhone OS 11_3 like Mac OS X) AppleWebKit/605.1.15 (KHTML, like Gecko) Version/11.0 Mobile/15E148 Safari/604.1"
5,4,2018/6/18 22:28,20,5,2018/6/18 22:27,12,2,2018/6/18 22:27,96,7,2018/6/18 22:25,35,3,2018/6/18 22:26,0,6,2018/6/18 22:28,0,1,2018/6/18 22:27,2018/6/18 22:24,2018/6/18 22:28,"Mozilla/5.0 (Linux; Android 8.0.0; SOV34 Build/41.3.C.1.50) AppleWebKit/537.36 (KHTML, like Gecko) Chrome/67.0.3396.87 Mobile Safari/537.36"
3,3,2018/6/18 23:06,50,4,2018/6/18 23:07,29,1,2018/6/18 23:04,87,6,2018/6/18 23:05,32,2,2018/6/18 23:08,4,5,2018/6/18 23:06,20,7,2018/6/18 23:08,2018/6/18 23:02,2018/6/18 23:08,"Mozilla/5.0 (iPhone; CPU iPhone OS 11_4 like Mac OS X) AppleWebKit/605.1.15 (KHTML, like Gecko) Version/11.0 Mobile/15E148 Safari/604.1"
95,5,2018/6/18 23:20,89,7,2018/6/18 23:22,52,1,2018/6/18 23:21,24,3,2018/6/18 23:23,31,6,2018/6/18 23:20,45,2,2018/6/18 23:21,56,4,2018/6/18 23:20,2018/6/18 23:20,2018/6/18 23:23,"Mozilla/5.0 (Windows NT 6.1; Win64; x64) AppleWebKit/537.36 (KHTML, like Gecko) Chrome/67.0.3396.87 Safari/537.36"
40,5,2018/6/18 23:15,33,1,2018/6/18 23:15,14,2,2018/6/18 23:17,73,7,2018/6/18 23:16,42,4,2018/6/18 23:14,32,6,2018/6/18 23:16,18,3,2018/6/18 23:15,2018/6/18 23:14,2018/6/18 23:17,"Mozilla/5.0 (Linux; Android 7.0; SH-01H Build/S3050) AppleWebKit/537.36 (KHTML, like Gecko) Chrome/67.0.3396.87 Mobile Safari/537.36"
20,1,2018/6/18 23:17,0,4,2018/6/18 23:18,37,3,2018/6/18 23:18,50,7,2018/6/18 23:17,37,6,2018/6/18 23:19,0,2,2018/6/18 23:18,1,5,2018/6/18 23:18,2018/6/18 23:16,2018/6/18 23:19,"Mozilla/5.0 (Windows NT 10.0; Win64; x64) AppleWebKit/537.36 (KHTML, like Gecko) Chrome/67.0.3396.87 Safari/537.36"
5,5,2018/6/18 23:18,10,2,2018/6/18 23:17,15,1,2018/6/18 23:19,40,7,2018/6/18 23:19,30,4,2018/6/18 23:16,0,3,2018/6/18 23:19,0,6,2018/6/18 23:18,2018/6/18 23:15,2018/6/18 23:19,"Mozilla/5.0 (Linux; Android 6.0; SO-01H Build/32.1.F.1.98) AppleWebKit/537.36 (KHTML, like Gecko) Chrome/65.0.3325.109 Mobile Safari/537.36"
26,3,2018/6/18 23:21,64,4,2018/6/18 23:22,71,5,2018/6/18 23:18,28,6,2018/6/18 23:19,53,1,2018/6/18 23:20,16,7,2018/6/18 23:20,58,2,2018/6/18 23:21,2018/6/18 23:16,2018/6/18 23:22,"Mozilla/5.0 (Macintosh; Intel Mac OS X 10_12_5) AppleWebKit/603.2.4 (KHTML, like Gecko) Version/10.1.1 Safari/603.2.4"
90,1,2018/6/18 23:24,10,2,2018/6/18 23:26,50,5,2018/6/18 23:28,45,3,2018/6/18 23:29,40,4,2018/6/18 23:27,0,7,2018/6/18 23:31,0,6,2018/6/18 23:30,2018/6/18 23:21,2018/6/18 23:31,"Mozilla/5.0 (Windows NT 10.0; Win64; x64) AppleWebKit/537.36 (KHTML, like Gecko) Chrome/67.0.3396.87 Safari/537.36"
50,3,2018/6/18 23:38,60,7,2018/6/18 23:37,50,4,2018/6/18 23:33,90,6,2018/6/18 23:36,60,2,2018/6/18 23:39,30,1,2018/6/18 23:36,60,5,2018/6/18 23:35,2018/6/18 23:32,2018/6/18 23:39,"Mozilla/5.0 (Linux; Android 7.1.1; F-03H Build/V07R043A) AppleWebKit/537.36 (KHTML, like Gecko) Chrome/66.0.3359.126 Mobile Safari/537.36"
15,3,2018/6/19 0:23,10,1,2018/6/19 0:24,10,6,2018/6/19 0:22,30,2,2018/6/19 0:25,10,7,2018/6/19 0:25,0,5,2018/6/19 0:23,0,4,2018/6/19 0:24,2018/6/19 0:22,2018/6/19 0:25,"Mozilla/5.0 (Windows NT 6.3; Win64; x64) AppleWebKit/537.36 (KHTML, like Gecko) Chrome/67.0.3396.87 Safari/537.36"